Zappos Twitter Analysis, Group 13
…
So from the output graph, we can deduct that optimum range of K would be from 3 to 5.

Now that we chose our K to be 3, we need to run the LDA model on our Document Term Matrix using Gibbs Sampling.

LDA is a mathematical method for estimating the following: finding the mixture of words that is associated with each topic, while also determining the mixture of topics that describes each document.

The LDA function returns an object containing the full details of the model fit, such as how words are associated with topics and how topics are associated with documents.

After fitting the model, we need to analyze the output. The tidytext package provides this method for extracting the per-topic-per-word probabilities, called  (beta).

## A LDA_Gibbs topic model with 3 topics.

## # A tibble: 24 x 3
##    topic term    beta
##    <int> <chr>  <dbl>
##  1     1 au    0.0330
##  2     1 wz    0.0292
##  3     1 good  0.0275
##  4     1 thank 0.0253
##  5     1 kl    0.0177
##  6     1 hh    0.0177
##  7     1 like  0.0176
##  8     1 youre 0.0117
##  9     2 lr    0.0428
## 10     2 love  0.0428
## # ... with 14 more rows
…
